{
  "all_tests": {
    "ignore elements": [
    ],
    "ignore source_urls": [
    ]
  },
  "alias_test": {
    "ignore elements": [
    ],
    "ignore source_urls": [
    ]
  },
  "mirror_defined_test": {
    "ignore elements": [
    ],
    "ignore source_urls": [
      "https://cache.sdk.freedesktop.org/releases/"
    ]
  },
  "mirror_exists_test": {
    "ignore elements": [
    ],
    "ignore source_urls": [
      "https://cache.sdk.freedesktop.org/releases/"
    ]
  },
  "mirror_commit_exists_test": {
    "ignore elements": [
    ],
    "ignore source_urls": [
    ]
  }
}
